PROJECT 2
…
Interestingly, the top 6 counties with the worst GINI indices (higher the number, and hence, worse the inequality) are all in Africa, while the most of the top 6 countries with the best GINI indices are all in Eastern Europe.

GINI.avg.per.country <- GINI %>% group_by(Country.Name) %>% summarise(AVG_GINI = mean(GINI_Index))
GINI.avg.per.country

## # A tibble: 148 x 2
##    Country.Name AVG_GINI
##    <fct>           <dbl>
##  1 ""               NA  
##  2 Albania          29  
##  3 Algeria          27.6
##  4 Angola           52  
##  5 Argentina        43.3
##  6 Armenia          30.5
##  7 Australia        34.7
##  8 Austria          30.7
##  9 Bangladesh       32.6
## 10 Belarus          27.6
## # ... with 138 more rows
…
